Date;y
5/29/2020;9513.76
5/28/2020;9580.19
5/27/2020;9208.53
5/26/2020;8844.42
5/25/2020;8899.31
5/24/2020;8715.73
5/23/2020;9181.76
5/22/2020;9168.84
5/21/2020;9061.96
5/20/2020;9509.41
5/19/2020;9783.76
5/18/2020;9728.52
5/17/2020;9676.63
5/16/2020;9383.16
5/15/2020;9312.1
5/14/2020;9795.34
5/13/2020;9321.26
5/12/2020;8821.42
5/11/2020;8572.4
5/10/2020;8729.86
5/9/2020;9537.21
5/8/2020;9810
5/7/2020;10004.77
5/6/2020;9155.79
5/5/2020;9028.79
5/4/2020;8883.53
5/3/2020;8909.95
5/2/2020;8985.58
5/1/2020;8829.42
4/30/2020;8624.28
4/29/2020;8793.75
4/28/2020;7755.01
4/27/2020;7789.77
4/26/2020;7706.4
4/25/2020;7547.61
4/24/2020;7514.64
4/23/2020;7488.83
4/22/2020;7136.84
4/21/2020;6853.68
4/20/2020;6838.19
4/19/2020;7130.71
4/18/2020;7261.76
4/17/2020;7037.46
4/16/2020;7112.64
4/15/2020;6624.12
4/14/2020;6877.37
4/13/2020;6861.21
4/12/2020;6908.13
4/11/2020;6889.65
4/10/2020;6871.91
4/9/2020;7293.24
4/8/2020;7370.11
4/7/2020;7200.01
4/6/2020;7341.56
4/5/2020;6778.25
4/4/2020;6874.77
4/3/2020;6741.99
4/2/2020;6804.52
4/1/2020;6666.11
3/31/2020;6424.35
3/30/2020;6406.4
3/29/2020;5877.21
3/28/2020;6251.82
3/27/2020;6372.36
3/26/2020;6758.18
3/25/2020;6690.96
3/24/2020;6766.64
3/23/2020;6490.63
3/22/2020;5818.25
3/21/2020;6198.78
3/20/2020;6206.1
3/19/2020;6186.26
3/18/2020;5413.64
3/17/2020;5331.71
3/16/2020;5037.61
3/15/2020;5345.35
3/14/2020;5165.25
3/13/2020;5637.6
3/12/2020;4857.1
3/11/2020;7938.05
3/10/2020;7894.68
3/9/2020;7934.52
3/8/2020;8037.76
3/7/2020;8901.37
3/6/2020;9158.51
3/5/2020;9070.17
3/4/2020;8760.66
3/3/2020;8757.84
3/2/2020;8915
3/1/2020;8522.31
2/29/2020;8525.07
2/28/2020;8708.89
2/27/2020;8812.49
2/26/2020;8778.3
2/25/2020;9305
2/24/2020;9660
2/23/2020;9965.01
2/22/2020;9668.23
2/21/2020;9695.66
2/20/2020;9610.05
2/19/2020;9600.08
2/18/2020;10188.04
2/17/2020;9700
2/16/2020;9921
2/15/2020;9911.22
2/14/2020;10371.33
2/13/2020;10236.49
2/12/2020;10351.13
2/11/2020;10270.01
2/10/2020;9851.78
2/9/2020;10168.35
2/8/2020;9905.64
2/7/2020;9808.05
2/6/2020;9763.01
2/5/2020;9613.82
2/4/2020;9164.33
2/3/2020;9280.49
2/2/2020;9323.5
2/1/2020;9380.18
1/31/2020;9334.98
1/30/2020;9503.08
1/29/2020;9288.44
1/28/2020;9394.5
1/27/2020;8895.96
1/26/2020;8595
1/25/2020;8326.81
1/24/2020;8427.26
1/23/2020;8385.22
1/22/2020;8660.38
1/21/2020;8722.03
1/20/2020;8628.89
1/19/2020;8697.53
1/18/2020;8909.32
1/17/2020;8899.42
1/16/2020;8714.76
1/15/2020;8808.81
1/14/2020;8815.69
1/13/2020;8104.5
1/12/2020;8180.81
1/11/2020;8020
1/10/2020;8198.09
1/9/2020;7813.78
1/8/2020;8045.51
1/7/2020;8158.52
1/6/2020;7764.63
1/5/2020;7355.4
1/4/2020;7348.63
1/3/2020;7334.45
1/2/2020;6945.02
1/1/2020;7174.33
12/31/2019;7165.72
12/30/2019;7218
12/29/2019;7384.89
12/28/2019;7302.67
12/27/2019;7245.83
12/26/2019;7194.13
12/25/2019;7192.12
12/24/2019;7255.01
12/23/2019;7310.79
12/22/2019;7513.06
12/21/2019;7143.01
12/20/2019;7190
12/19/2019;7149.12
12/18/2019;7285.53
12/17/2019;6616.62
12/16/2019;6877.03
12/15/2019;7111
12/14/2019;7062.91
12/13/2019;7249.9
12/12/2019;7185.91
12/11/2019;7201.23
12/10/2019;7219.37
12/9/2019;7337.51
12/8/2019;7520
12/7/2019;7502.19
12/6/2019;7540.08
12/5/2019;7393.54
12/4/2019;7198.99
12/3/2019;7302.94
12/2/2019;7305.01
12/1/2019;7404.27
11/30/2019;7555.92
11/29/2019;7760
11/28/2019;7432.41
11/27/2019;7523.72
11/26/2019;7162.67
11/25/2019;7127.01
11/24/2019;6908.64
11/23/2019;7329.29
11/22/2019;7283.03
11/21/2019;7616.46
11/20/2019;8082.96
11/19/2019;8123.36
11/18/2019;8168.84
11/17/2019;8500.01
11/16/2019;8481
11/15/2019;8457.48
11/14/2019;8630
11/13/2019;8758.34
11/12/2019;8810
11/11/2019;8721.54
11/10/2019;9032.23
11/9/2019;8807.89
11/8/2019;8763.01
11/7/2019;9198.84
11/6/2019;9341.27
11/5/2019;9322.09
11/4/2019;9412.53
11/3/2019;9206.52
11/2/2019;9308.52
11/1/2019;9253.12
10/31/2019;9159.48
10/30/2019;9164.44
10/29/2019;9430.8
10/28/2019;9226.5
10/27/2019;9548.84
10/26/2019;9259.78
10/25/2019;8668
10/24/2019;7430.87
10/23/2019;7474.85
10/22/2019;8024.72
10/21/2019;8209.92
10/20/2019;8236.12
10/19/2019;7965.28
10/18/2019;7954.16
10/17/2019;8076.2
10/16/2019;7993.54
10/15/2019;8162.44
10/14/2019;8355
10/13/2019;8282.97
10/12/2019;8309.03
10/11/2019;8267.33
10/10/2019;8587.5
10/9/2019;8590
10/8/2019;8180
10/7/2019;8209
10/6/2019;7859.79
10/5/2019;8147.63
10/4/2019;8156.67
10/3/2019;8240.41
10/2/2019;8381.72
10/1/2019;8321.52
9/30/2019;8304.96
9/29/2019;8052.4
9/28/2019;8217.47
9/27/2019;8193.99
9/26/2019;8060
9/25/2019;8438.35
9/24/2019;8530.01
9/23/2019;9693.74
9/22/2019;10026.8
9/21/2019;9973.99
9/20/2019;10168.85
9/19/2019;10275.01
9/18/2019;10155.26
9/17/2019;10185.39
9/16/2019;10262.54
9/15/2019;10304.46
9/14/2019;10360.25
9/13/2019;10365.93
9/12/2019;10423.72
9/11/2019;10160.2
9/10/2019;10093.01
9/9/2019;10310
9/8/2019;10398.97
9/7/2019;10484.37
9/6/2019;10308.92
9/5/2019;10574.73
9/4/2019;10581.84
9/3/2019;10628.48
9/2/2019;10381.26
9/1/2019;9766.52
8/31/2019;9600.86
8/30/2019;9582.42
8/29/2019;9495
8/28/2019;9714.31
8/27/2019;10171.85
8/26/2019;10361.65
8/25/2019;10138.72
8/24/2019;10147.96
8/23/2019;10410.85
8/22/2019;10107.15
8/21/2019;10130
8/20/2019;10769.09
8/19/2019;10920
8/18/2019;10315.48
8/17/2019;10217.79
8/16/2019;10352.78
8/15/2019;10300.01
8/14/2019;10025.86
8/13/2019;10854.92
8/12/2019;11389.28
8/11/2019;11540.76
8/10/2019;11280.95
8/9/2019;11856.1
8/8/2019;11981
8/7/2019;11975.03
8/6/2019;11465.49
8/5/2019;11819.49
8/4/2019;10977.51
8/3/2019;10820.76
8/2/2019;10533.01
8/1/2019;10405.94
7/31/2019;10087.3
7/30/2019;9589.01
7/29/2019;9495.01
7/28/2019;9533
7/27/2019;9479.98
7/26/2019;9843
7/25/2019;9883.33
7/24/2019;9772.6
7/23/2019;9840.12
7/22/2019;10323.39
7/21/2019;10590.7
7/20/2019;10761.03
7/19/2019;10538.06
7/18/2019;10649.07
7/17/2019;9696.31
7/16/2019;9422.72
7/15/2019;10854.47
7/14/2019;10185.03
7/13/2019;11370.08
7/12/2019;11802
7/11/2019;11349
7/10/2019;12097.96
7/9/2019;12571.11
7/8/2019;12293.53
7/7/2019;11474.42
7/6/2019;11237.77
7/5/2019;11004.51
7/4/2019;11136
7/3/2019;11976.42
7/2/2019;10829.18
7/1/2019;10577.63
6/30/2019;10761.26
6/29/2019;11865.29
6/28/2019;12360.45
6/27/2019;11159.29
6/26/2019;12927.44
6/25/2019;11755.53
6/24/2019;11032.32
6/23/2019;10833.02
6/22/2019;10666.86
6/21/2019;10236.2
6/20/2019;9531.21
6/19/2019;9277.54
6/18/2019;9078.48
6/17/2019;9333.14
6/16/2019;8975
6/15/2019;8860.23
6/14/2019;8697.46
6/13/2019;8239.04
6/12/2019;8176.02
6/11/2019;7918.17
6/10/2019;8015.69
6/9/2019;7634.58
6/8/2019;7930.14
6/7/2019;7998.13
6/6/2019;7805
6/5/2019;7789.48
6/4/2019;7670.96
6/3/2019;8107.96
6/2/2019;8736.55
6/1/2019;8558.95
5/31/2019;8554.06
5/30/2019;8279.69
5/29/2019;8662.44
5/28/2019;8715.36
5/27/2019;8772.29
5/26/2019;8731.72
5/25/2019;8063.81
5/24/2019;8001.7
5/23/2019;7881.98
5/22/2019;7626.48
5/21/2019;7951.7
5/20/2019;7999.54
5/19/2019;8200
5/18/2019;7262.4
5/17/2019;7363.69
5/16/2019;7878.96
5/15/2019;8203.32
5/14/2019;7990.92
5/13/2019;7824.93
5/12/2019;6979.76
5/11/2019;7219.95
5/10/2019;6343.14
5/9/2019;6153.09
5/8/2019;5948.41
5/7/2019;5907.47
5/6/2019;5687.9
5/5/2019;5715.86
5/4/2019;5770.01
5/3/2019;5657.4
5/2/2019;5390.01
5/1/2019;5321.15
4/30/2019;5270.69
4/29/2019;5148.25
4/28/2019;5155
4/27/2019;5170.6
4/26/2019;5159.51
4/25/2019;5134.81
4/24/2019;5441.9
4/23/2019;5532.75
4/22/2019;5387.6
4/21/2019;5297.64
4/20/2019;5319.89
4/19/2019;5290.37
4/18/2019;5281.81
4/17/2019;5227
4/16/2019;5202.9
4/15/2019;5029.99
4/14/2019;5164.27
4/13/2019;5066.22
4/12/2019;5078.19
4/11/2019;5040.12
4/10/2019;5318.58
4/9/2019;5193.49
4/8/2019;5285.54
4/7/2019;5194.79
4/6/2019;5044.13
4/5/2019;5040.66
4/4/2019;4907.3
4/3/2019;4975.97
4/2/2019;4901.93
4/1/2019;4137.01
3/19/2019;3975.01
3/18/2019;3970.5
3/17/2019;3967.01
3/16/2019;3990
3/15/2019;3902.8
3/14/2019;3853.95
3/13/2019;3851.02
3/12/2019;3860
3/11/2019;3849.68
3/10/2019;3900.92
3/9/2019;3917
3/8/2019;3843.12
3/7/2019;3857.05
3/6/2019;3851.89
3/5/2019;3844.59
3/4/2019;3700.72
3/3/2019;3786.93
3/2/2019;3809.7
3/1/2019;3806.17
2/28/2019;3792.14
2/27/2019;3799.92
2/26/2019;3799.48
2/25/2019;3818.79
2/24/2019;3734.22
2/23/2019;4110
2/22/2019;3942.02
2/21/2019;3897.71
2/20/2019;3938.99
2/19/2019;3888.01
2/18/2019;3867
2/17/2019;3625.08
2/16/2019;3582.37
2/15/2019;3566.59
2/14/2019;3561.5
2/13/2019;3576.68
2/12/2019;3588.06
2/11/2019;3590.36
2/10/2019;3648.85
2/9/2019;3623.73
2/8/2019;3622
2/7/2019;3359
2/6/2019;3367.36
2/5/2019;3428.4
2/4/2019;3409.57
2/3/2019;3414.78
2/2/2019;3468.43
2/1/2019;3437.5
1/31/2019;3411.49
1/30/2019;3437.55
1/29/2019;3397.42
1/28/2019;3429.95
1/27/2019;3531.01
1/26/2019;3556.07
1/25/2019;3562.18
1/24/2019;3568.97
1/23/2019;3553.01
1/22/2019;3577.03
1/21/2019;3531.76
1/20/2019;3536.19
1/19/2019;3682.65
1/18/2019;3607.85
1/17/2019;3640.65
1/16/2019;3609.71
1/15/2019;3580.76
1/14/2019;3664.19
1/13/2019;3514.24
1/12/2019;3619.41
1/11/2019;3635.69
1/10/2019;3626.12
1/9/2019;4004.12
1/8/2019;3993.86
1/7/2019;4006.01
1/6/2019;4040.99
1/5/2019;3798.62
1/4/2019;3820.25
1/3/2019;3787.57
1/2/2019;3890.79
1/1/2019;3826.09
12/31/2018;3691.86
12/30/2018;3829
12/29/2018;3729.31
12/28/2018;3888.06
12/27/2018;3589.89
12/26/2018;3809.88
12/25/2018;3780
12/24/2018;4034
12/23/2018;3944.93
12/22/2018;3980.46
12/21/2018;3839.06
12/20/2018;4075.34
12/19/2018;3682.51
12/18/2018;3667.77
12/17/2018;3496.82
12/16/2018;3195
12/15/2018;3183
12/14/2018;3195.71
12/13/2018;3265
12/12/2018;3430.24
12/11/2018;3355.68
12/10/2018;3410.15
12/9/2018;3531.18
12/8/2018;3401
12/7/2018;3380.01
12/6/2018;3433.26
12/5/2018;3694.39
12/4/2018;3901.84
12/3/2018;3833.47
12/2/2018;4103.19
12/1/2018;4142.01
11/30/2018;3975.48
11/29/2018;4248
11/28/2018;4225.03
11/27/2018;3775
11/26/2018;3731.32
11/25/2018;3936.69
11/24/2018;3774.99
11/23/2018;4283.8
11/22/2018;4263.66
11/21/2018;4545.11
11/20/2018;4349.23
11/19/2018;4733.5
11/18/2018;5560
11/17/2018;5504.17
11/16/2018;5512.24
11/15/2018;5579.52
11/14/2018;5605.46
11/13/2018;6259.35
11/12/2018;6327.86
11/11/2018;6357.6
11/10/2018;6347.42
11/9/2018;6334.89
11/8/2018;6406.25
11/7/2018;6503.12
11/6/2018;6448.5
11/5/2018;6404
11/4/2018;6423.28
11/3/2018;6331.96
11/2/2018;6349.8
11/1/2018;6343.99
10/31/2018;6304.18
10/30/2018;6267.63
10/29/2018;6266
10/28/2018;6403.62
10/27/2018;6409.12
10/26/2018;6404.87
10/25/2018;6395.58
10/24/2018;6415.97
10/23/2018;6395.14
10/22/2018;6407.65
10/21/2018;6415.88
10/20/2018;6414
10/19/2018;6382.98
10/18/2018;6394.96
10/17/2018;6443.7
10/16/2018;6422.16
10/15/2018;6436.98
10/14/2018;6183.49
10/13/2018;6196
10/12/2018;6188.01
10/11/2018;6154.69
10/10/2018;6524.56
10/9/2018;6589.48
10/8/2018;6608.07
10/7/2018;6570
10/6/2018;6552.43
10/5/2018;6593.94
10/4/2018;6547.45
10/3/2018;6466.03
10/2/2018;6498.46
10/1/2018;6572.83
9/30/2018;6605
9/29/2018;6582
9/28/2018;6620.01
9/27/2018;6680.01
9/26/2018;6455.66
9/25/2018;6436.89
9/24/2018;6582.09
9/23/2018;6696.99
9/22/2018;6707.33
9/21/2018;6750
9/20/2018;6493.11
9/19/2018;6386.94
9/18/2018;6335.7
9/17/2018;6250.7
9/16/2018;6498
9/15/2018;6518.68
9/14/2018;6478.04
9/13/2018;6485.99
9/12/2018;6326
9/11/2018;6282.53
9/10/2018;6299.99
9/9/2018;6235.01
9/8/2018;6188
9/7/2018;6395.01
9/6/2018;6495
9/5/2018;6687.96
9/4/2018;7360
9/3/2018;7256.98
9/2/2018;7295
9/1/2018;7191.08
8/31/2018;7015.01
8/30/2018;6983
8/29/2018;7030.9
8/28/2018;7071.01
8/27/2018;6911.9
8/26/2018;6709.98
8/25/2018;6737.52
8/24/2018;6690.88
8/23/2018;6526.36
8/22/2018;6359.99
8/21/2018;6475.9
8/20/2018;6258.74
8/19/2018;6489.53
8/18/2018;6396.64
8/17/2018;6585.49
8/16/2018;6315.9
8/15/2018;6269.01
8/14/2018;6195.01
8/13/2018;6253.67
8/12/2018;6112.21
8/11/2018;6112.21
8/10/2018;6146.01
8/9/2018;6546.46
8/8/2018;6282.5
8/7/2018;6718.22
8/6/2018;6938
8/5/2018;7030.01
8/4/2018;7005
8/3/2018;7414.08
8/2/2018;7533.92
8/1/2018;7603.99
7/31/2018;7727.27
7/30/2018;8170.01
7/29/2018;8216.34
7/28/2018;8228.9
7/27/2018;8184.21
7/26/2018;7931.99
7/25/2018;8157.15
7/24/2018;8401.01
7/23/2018;7720.09
7/22/2018;7397.8
7/21/2018;7408
7/20/2018;7334.46
7/19/2018;7470.01
7/18/2018;7378.99
7/17/2018;7315.01
7/16/2018;6728.81
7/15/2018;6348.73
7/14/2018;6248.65
7/13/2018;6216.29
7/12/2018;6249.75
7/11/2018;6390.04
7/10/2018;6303.7
7/9/2018;6664.01
7/8/2018;6701.97
7/7/2018;6753.28
7/6/2018;6600
7/5/2018;6532.95
7/4/2018;6587.47
7/3/2018;6502.62
7/2/2018;6611.79
7/1/2018;6349.5
6/30/2018;6383.19
6/29/2018;6202.36
6/28/2018;5851.66
6/27/2018;6132.17
6/26/2018;6074.94
6/25/2018;6246.01
6/24/2018;6149.99
6/23/2018;6178.29
6/22/2018;6059.82
6/21/2018;6719.01
6/20/2018;6756.1
6/19/2018;6736.41
6/18/2018;6709.02
6/17/2018;6447.16
6/16/2018;6484.29
6/15/2018;6391.22
6/14/2018;6638.49
6/13/2018;6302.32
6/12/2018;6544.99
6/11/2018;6881
6/10/2018;6770.31
6/9/2018;7496.4
6/8/2018;7618.8
6/7/2018;7684.93
6/6/2018;7655
6/5/2018;7612.51
6/4/2018;7487.37
6/3/2018;7706.37
6/2/2018;7636.42
6/1/2018;7514.32
5/31/2018;7485
5/30/2018;7380.01
5/29/2018;7460
5/28/2018;7107.94
5/27/2018;7346.64
5/26/2018;7337.95
5/25/2018;7459.11
5/24/2018;7584.15
5/23/2018;7505
5/22/2018;7987.7
5/21/2018;8393.44
5/20/2018;8516.86
5/19/2018;8235.6
5/18/2018;8238.51
5/17/2018;8059
5/16/2018;8344
5/15/2018;8477.46
5/14/2018;8670
5/13/2018;8686.1
5/12/2018;8475
5/11/2018;8403.33
5/10/2018;9010.51
5/9/2018;9300.08
5/8/2018;9177.81
5/7/2018;9353
5/6/2018;9600
5/5/2018;9800
5/4/2018;9685
5/3/2018;9725.74
5/2/2018;9190.48
5/1/2018;9072.29
4/30/2018;9243.83
4/29/2018;9389.01
4/28/2018;9329.99
4/27/2018;8922.55
4/26/2018;9272.11
4/25/2018;8865.98
4/24/2018;9648
4/23/2018;8931.3
4/22/2018;8795.01
4/21/2018;8915.42
4/20/2018;8866.27
4/19/2018;8274
4/18/2018;8152.05
4/17/2018;7892.1
4/16/2018;8048.93
4/15/2018;8355.25
4/14/2018;8003.11
4/13/2018;7893.19
4/12/2018;7916
4/11/2018;6942.99
4/10/2018;6824.99
4/9/2018;6771.13
4/8/2018;7020.01
4/7/2018;6894.01
4/6/2018;6619.01
4/5/2018;6785.85
4/4/2018;6791.68
4/3/2018;7424.9
4/2/2018;7045.01
4/1/2018;6816.01
3/31/2018;6928.5
3/30/2018;6848.01
3/29/2018;7079.99
3/28/2018;7942.72
3/27/2018;7793.61
3/26/2018;8145
3/25/2018;8453
3/24/2018;8531.34
3/23/2018;8927.1
3/22/2018;8715.09
3/21/2018;8891.81
3/20/2018;8900
3/19/2018;8589.01
3/18/2018;8192
3/17/2018;7857.6
3/16/2018;8275
3/15/2018;8259.99
3/14/2018;8207.02
3/13/2018;9145.41
3/12/2018;9120
3/11/2018;9533.88
3/10/2018;8795.44
3/9/2018;9255
3/8/2018;9304.89
3/7/2018;9925
3/6/2018;10700
3/5/2018;11377.54
3/4/2018;11469.9
3/3/2018;11432.5
3/2/2018;11000
3/1/2018;10895.92
2/28/2018;10307.27
2/27/2018;10566.57
2/26/2018;10300
2/25/2018;9597.99
2/24/2018;9688.62
2/23/2018;10144.99
2/22/2018;9830
2/21/2018;10454.27
2/20/2018;11235.57
2/19/2018;11140
2/18/2018;10380.04
2/17/2018;11121.5
2/16/2018;10167.49
2/15/2018;10031.23
2/14/2018;9472.98
2/13/2018;8520.01
2/12/2018;8872.28
2/11/2018;8072.99
2/10/2018;8547.49
2/9/2018;8671.01
2/8/2018;8218.1
2/7/2018;7575.75
2/6/2018;7688.46
2/5/2018;6905.19
2/4/2018;8167.9
2/3/2018;9240
2/2/2018;8787.52
2/1/2018;9010.61
1/31/2018;10099.99
1/30/2018;9995
1/29/2018;11123.01
1/28/2018;11536
1/27/2018;11319
1/26/2018;11086.89
1/25/2018;11118
1/24/2018;11356.79
1/23/2018;10824.94
1/22/2018;10766.7
1/21/2018;11518.16
1/20/2018;12762.8
1/19/2018;11498.99
1/18/2018;11305.53
1/17/2018;11200.01
1/16/2018;11570.01
1/15/2018;13590
1/14/2018;13656.23
1/13/2018;14187.95
1/12/2018;13820
1/11/2018;13308.06
1/10/2018;14875.18
1/9/2018;14480.99
1/8/2018;14993.74
1/7/2018;16174.22
1/6/2018;17099
1/5/2018;16960.01
1/4/2018;15144.99
1/3/2018;15098.14
1/2/2018;14781.51
1/1/2018;13480.01
12/31/2017;13863.13
12/30/2017;12839.99
12/29/2017;14565.05
12/28/2017;14450.01
12/27/2017;15367.08
12/26/2017;15790.88
12/25/2017;14171.98
12/24/2017;14221.94
12/23/2017;15065.51
12/22/2017;14210.57
12/21/2017;15758.8
12/20/2017;16496.9
12/19/2017;17838.73
12/18/2017;19039
12/17/2017;19378.99
12/16/2017;19650
12/15/2017;17738.67
12/14/2017;16749.79
12/13/2017;16689.61
12/12/2017;17730.12
12/11/2017;16885.75
12/10/2017;15290.01
12/9/2017;15309.98
12/8/2017;16367.03
12/7/2017;17390.01
12/6/2017;14090
12/5/2017;11718.35
12/4/2017;11643.98
12/3/2017;11290
12/2/2017;10930.23
12/1/2017;10869.84
11/30/2017;9903
11/29/2017;9935.98
11/28/2017;9949
11/27/2017;9768.71
11/26/2017;9401.11
11/25/2017;8795.5
11/24/2017;8215.01
11/23/2017;8031.16
11/22/2017;8250
11/21/2017;8109
11/20/2017;8256.01
11/19/2017;8031.82
11/18/2017;7777.01
11/17/2017;7714.71
11/16/2017;7838.53
11/15/2017;7294
11/14/2017;6605
11/13/2017;6535.87
11/12/2017;5886.35
11/11/2017;6346.7
11/10/2017;6577.63
11/9/2017;7156
11/8/2017;7467.96
11/7/2017;7126.63
11/6/2017;6969.76
11/5/2017;7392
11/4/2017;7412.55
11/3/2017;7170.01
11/2/2017;7039.99
11/1/2017;6783.69
10/31/2017;6445.01
10/30/2017;6124.16
10/29/2017;6140.01
10/28/2017;5752.01
10/27/2017;5780
10/26/2017;5891.61
10/25/2017;5739.97
10/24/2017;5525.43
10/23/2017;5905.99
10/22/2017;6005.05
10/21/2017;6024.86
10/20/2017;5989.1
10/19/2017;5704.01
10/18/2017;5574.44
10/17/2017;5594
10/16/2017;5754.9
10/15/2017;5693.7
10/14/2017;5819.13
10/13/2017;5624.8
10/12/2017;5440
10/11/2017;4814.99
10/10/2017;4750
10/9/2017;4769.55
10/8/2017;4603.49
10/7/2017;4425
10/6/2017;4362.99
10/5/2017;4320.04
10/4/2017;4214.84
10/3/2017;4307.99
10/2/2017;4392.71
10/1/2017;4394.81
9/30/2017;4339
9/29/2017;4156.99
9/28/2017;4189.42
9/27/2017;4200
9/26/2017;3885.09
9/25/2017;3919.78
9/24/2017;3669.01
9/23/2017;3787.33
9/22/2017;3619.01
9/21/2017;3617.47
9/20/2017;3867.05
9/19/2017;3910.11
9/18/2017;4100
9/17/2017;3719.97
9/16/2017;3726.51
9/15/2017;3740.02
9/14/2017;3250.4
9/13/2017;3855.32
9/12/2017;4164.52
9/11/2017;4210.72
9/10/2017;4251.36
9/9/2017;4334.36
9/8/2017;4350
9/7/2017;4624.18
9/6/2017;4616.18
9/5/2017;4432.51
9/4/2017;4498.25
9/3/2017;4626.05
9/2/2017;4649.99
9/1/2017;4947.99
8/31/2017;4743.94
8/30/2017;4581.98
8/29/2017;4599
8/28/2017;4384.99
8/27/2017;4340.11
8/26/2017;4344.32
8/25/2017;4360
8/24/2017;4312.03
8/23/2017;4143.49
8/22/2017;4092
8/21/2017;4002
8/20/2017;4050.99
8/19/2017;4157.41
8/18/2017;4101.72
8/17/2017;4280.01
8/16/2017;4370.01
8/15/2017;4159.93
8/14/2017;4320.6
8/13/2017;4060.47
8/12/2017;3874
8/11/2017;3656.15
8/10/2017;3444.98
8/9/2017;3342.8
8/8/2017;3422.43
8/7/2017;3398.23
8/6/2017;3222.22
8/5/2017;3243.49
8/4/2017;2857.34
8/3/2017;2787.02
8/2/2017;2699.9
8/1/2017;2732.59
7/31/2017;2856.88
7/30/2017;2723.99
7/29/2017;2700.21
7/28/2017;2786.07
7/27/2017;2664.99
7/26/2017;2525.99
7/25/2017;2564
7/24/2017;2762.26
7/23/2017;2754.28
7/22/2017;2825.27
7/21/2017;2657.45
7/20/2017;2873.48
7/19/2017;2258.99
7/18/2017;2308.15
7/17/2017;2235.19
7/16/2017;1910.86
7/15/2017;1964.31
7/14/2017;2217.24
7/13/2017;2340
7/12/2017;2383.42
7/11/2017;2310.01
7/10/2017;2331.05
7/9/2017;2508.99
7/8/2017;2561.11
7/7/2017;2501.15
7/6/2017;2604.84
7/5/2017;2616.96
7/4/2017;2602
7/3/2017;2542.41
7/2/2017;2516.66
7/1/2017;2423.63
6/30/2017;2455.19
6/29/2017;2530
6/28/2017;2553.25
6/27/2017;2575.75
6/26/2017;2407.91
6/25/2017;2505.61
6/24/2017;2574.84
6/23/2017;2690.76
6/22/2017;2679.99
6/21/2017;2643.35
6/20/2017;2725.08
6/19/2017;2596.98
6/18/2017;2515.25
6/17/2017;2634.94
6/16/2017;2480.43
6/15/2017;2409.98
6/14/2017;2432.21
6/13/2017;2709.01
6/12/2017;2655.71
6/11/2017;2998.98
6/10/2017;2932.44
6/9/2017;2811.39
6/8/2017;2799.73
6/7/2017;2685.64
6/6/2017;2871.29
6/5/2017;2698
6/4/2017;2521.36
6/3/2017;2548.05
6/2/2017;2478.99
6/1/2017;2419.99
5/31/2017;2303.29
5/30/2017;2191.58
5/29/2017;2279.48
5/28/2017;2232.78
5/27/2017;2099.99
5/26/2017;2272.7
5/25/2017;2355
5/24/2017;2432.97
5/23/2017;2272.75
5/22/2017;2123.29
5/21/2017;2057
5/20/2017;2058.91
5/19/2017;1976.23
5/18/2017;1899.16
5/17/2017;1813.23
5/16/2017;1777.48
5/15/2017;1747.81
5/14/2017;1799.99
5/13/2017;1792.73
5/12/2017;1695.61
5/11/2017;1837.93
5/10/2017;1794.99
5/9/2017;1720.43
5/8/2017;1713
5/7/2017;1609.57
5/6/2017;1585.39
5/5/2017;1551.3
5/4/2017;1563.39
5/3/2017;1533
5/2/2017;1471.99
5/1/2017;1436.5
4/30/2017;1384.55
4/29/2017;1365.43
4/28/2017;1353.34
4/27/2017;1349.26
4/26/2017;1298.44
4/25/2017;1281.16
4/24/2017;1257.29
4/23/2017;1251.98
4/22/2017;1247
4/21/2017;1249.99
4/20/2017;1236.15
4/19/2017;1214.21
4/18/2017;1201.94
4/17/2017;1189.91
4/16/2017;1177.99
4/15/2017;1178.85
4/14/2017;1173.74
4/13/2017;1177.05
4/12/2017;1214.17
4/11/2017;1223.99
4/10/2017;1210
4/9/2017;1210.97
4/8/2017;1184.5
4/7/2017;1194
4/6/2017;1192.3
4/5/2017;1132.99
4/4/2017;1143.99
4/3/2017;1152.6
4/2/2017;1113.99
4/1/2017;1092
3/31/2017;1088.99
3/30/2017;1042.08
3/29/2017;1043.27
3/28/2017;1045.4
3/27/2017;1042.08
3/26/2017;973.08
3/25/2017;963.72
3/24/2017;934.87
3/23/2017;1025.14
3/22/2017;1034.57
3/21/2017;1114.42
3/20/2017;1044.96
3/19/2017;1019.49
3/18/2017;970
3/17/2017;1069.57
3/16/2017;1175.11
3/15/2017;1263
3/14/2017;1247.42
3/13/2017;1245.5
3/12/2017;1235.58
3/11/2017;1188.11
3/10/2017;1109.01
3/9/2017;1197.3
3/8/2017;1150.22
3/7/2017;1237.36
3/6/2017;1284.99
3/5/2017;1278.98
3/4/2017;1273.97
3/3/2017;1292.86
3/2/2017;1269.17
3/1/2017;1230
2/28/2017;1195.08
2/27/2017;1195.81
2/26/2017;1184.91
2/25/2017;1158
2/24/2017;1186.91
2/23/2017;1186.9
2/22/2017;1128.71
2/21/2017;1128.29
2/20/2017;1089.86
2/19/2017;1059.88
2/18/2017;1062.15
2/17/2017;1057.3
2/16/2017;1038.94
2/15/2017;1014.53
2/14/2017;1012.23
2/13/2017;1002.56
2/12/2017;1010
2/11/2017;1018.43
2/10/2017;1003.97
2/9/2017;985
2/8/2017;1059.14
2/7/2017;1053.97
2/6/2017;1024.39
2/5/2017;1019.31
2/4/2017;1035.84
2/3/2017;1016.77
2/2/2017;1007.66
2/1/2017;989.71
1/31/2017;970.92
1/30/2017;923.45
1/29/2017;917.31
1/28/2017;924.7
1/27/2017;923.4
1/26/2017;917.93
1/25/2017;896.81
1/24/2017;894.86
1/23/2017;924.24
1/22/2017;924.98
1/21/2017;925.36
1/20/2017;894.05
1/19/2017;901
1/18/2017;880
1/17/2017;907.58
1/16/2017;831.89
1/15/2017;830
1/14/2017;829.62
1/13/2017;830.79
1/12/2017;822.64
1/11/2017;801.5
1/10/2017;907.53
1/9/2017;905.41
1/8/2017;916.6
1/7/2017;903.7
1/6/2017;894.93
1/5/2017;995.05
1/4/2017;1133
1/3/2017;1035.19
1/2/2017;1019.01
1/1/2017;996.82
12/31/2016;970.47
12/30/2016;962.63
12/29/2016;976.75
12/28/2016;981.92
12/27/2016;921.59
12/26/2016;901.98
12/25/2016;896.73
12/24/2016;887
12/23/2016;915.5
12/22/2016;858.01
12/21/2016;828.58
12/20/2016;797.99
12/19/2016;789.91
12/18/2016;790
12/17/2016;790.07
12/16/2016;785
12/15/2016;775
12/14/2016;777.72
12/13/2016;779.79
12/12/2016;778.71
12/11/2016;770.9
12/10/2016;775.98
12/9/2016;771.77
12/8/2016;768.35
12/7/2016;766.07
12/6/2016;755.73
12/5/2016;753.36
12/4/2016;766.96
12/3/2016;766.52
12/2/2016;771.54
12/1/2016;753.57
11/30/2016;742.6
11/29/2016;731.8
11/28/2016;730.27
11/27/2016;729.01
11/26/2016;735.83
11/25/2016;739
11/24/2016;737.99
11/23/2016;741.76
11/22/2016;747
11/21/2016;735.81
11/20/2016;731
11/19/2016;750.38
11/18/2016;747.8
11/17/2016;736.57
11/16/2016;737.55
11/15/2016;712.41
11/14/2016;705.52
11/13/2016;703.98
11/12/2016;704.67
11/11/2016;714.77
11/10/2016;712.28
11/9/2016;721
11/8/2016;712.57
11/7/2016;706.82
11/6/2016;716.83
11/5/2016;706.9
11/4/2016;705.7
11/3/2016;688.93
11/2/2016;735.5
11/1/2016;731.16
10/31/2016;699.68
10/30/2016;697.65
10/29/2016;717.9
10/28/2016;689.65
10/27/2016;685.57
10/26/2016;674
10/25/2016;649.07
10/24/2016;649.75
10/23/2016;650.54
10/22/2016;655
10/21/2016;629.76
10/20/2016;627.83
10/19/2016;629.68
10/18/2016;634.97
10/17/2016;638.96
10/16/2016;642.53
10/15/2016;637.51
10/14/2016;638
10/13/2016;635.86
10/12/2016;636.92
10/11/2016;643.83
10/10/2016;618.31
10/9/2016;617.58
10/8/2016;619.59
10/7/2016;617.32
10/6/2016;611.83
10/5/2016;613.35
10/4/2016;609.25
10/3/2016;612.95
10/2/2016;612.41
10/1/2016;616
9/30/2016;607.65
9/29/2016;605.07
9/28/2016;604.98
9/27/2016;605.3
9/26/2016;606.82
9/25/2016;601.35
9/24/2016;603.69
9/23/2016;602.68
9/22/2016;595.25
9/21/2016;596.95
9/20/2016;608.98
9/19/2016;608.94
9/18/2016;610.99
9/17/2016;607.83
9/16/2016;607.75
9/15/2016;607.01
9/14/2016;608.95
9/13/2016;608.24
9/12/2016;607.48
9/11/2016;607.25
9/10/2016;625.1
9/9/2016;622.6
9/8/2016;628.77
9/7/2016;614.59
9/6/2016;612.37
9/5/2016;606.19
9/4/2016;611.82
9/3/2016;600.58
9/2/2016;575.38
9/1/2016;571.96
8/31/2016;571.59
8/30/2016;574.79
8/29/2016;573
8/28/2016;574.83
8/27/2016;570.42
8/26/2016;578.89
8/25/2016;576.16
8/24/2016;578.92
8/23/2016;582.58
8/22/2016;585.12
8/21/2016;580.65
8/20/2016;583.21
8/19/2016;574.49
8/18/2016;573.99
8/17/2016;573.83
8/16/2016;581.97
8/15/2016;568.09
8/14/2016;572.43
8/13/2016;586
8/12/2016;587.82
8/11/2016;589.22
8/10/2016;593.24
8/9/2016;588.13
8/8/2016;591.91
8/7/2016;593.9
8/6/2016;590.98
8/5/2016;582.98
8/4/2016;585
8/3/2016;576
8/2/2016;515.38
8/1/2016;603.97
7/31/2016;623.14
7/30/2016;656.32
7/29/2016;657.27
7/28/2016;656.67
7/27/2016;657.04
7/26/2016;657.73
7/25/2016;657.39
7/24/2016;660.27
7/23/2016;658.19
7/22/2016;653.69
7/21/2016;667.73
7/20/2016;667.94
7/19/2016;673.89
7/18/2016;675.4
7/17/2016;679.08
7/16/2016;666.45
7/15/2016;668.28
7/14/2016;661.41
7/13/2016;662.57
7/12/2016;674.02
7/11/2016;651.7
7/10/2016;652.54
7/9/2016;658.78
7/8/2016;666.5
7/7/2016;640.3
7/6/2016;678
7/5/2016;668.45
7/4/2016;679
7/3/2016;669
7/2/2016;701.23
7/1/2016;680.61
6/30/2016;672.45
6/29/2016;639.22
6/28/2016;647.63
6/27/2016;650.31
6/26/2016;639.13
6/25/2016;677.72
6/24/2016;668.6
6/23/2016;630.87
6/22/2016;594.68
6/21/2016;669.99
6/20/2016;730.42
6/19/2016;767.98
6/18/2016;760.08
6/17/2016;753
6/16/2016;770.21
6/15/2016;694.83
6/14/2016;684.9
6/13/2016;706
6/12/2016;674.26
6/11/2016;595.82
6/10/2016;579.5
6/9/2016;578.56
6/8/2016;583.23
6/7/2016;579.33
6/6/2016;585.99
6/5/2016;574.86
6/4/2016;575.56
6/3/2016;570
6/2/2016;538.53
6/1/2016;536.99
5/31/2016;531.47
5/30/2016;533
5/29/2016;524.7
5/28/2016;528.04
5/27/2016;470.94
5/26/2016;454.68
5/25/2016;451.78
5/24/2016;446.5
5/23/2016;444.88
5/22/2016;442.54
5/21/2016;446.14
5/20/2016;444.27
5/19/2016;442.41
5/18/2016;455.19
5/17/2016;453.62
5/16/2016;456.78
5/15/2016;462.26
5/14/2016;458.99
5/13/2016;457.49
5/12/2016;455.83
5/11/2016;454.46
5/10/2016;452.92
5/9/2016;464.24
5/8/2016;461.91
5/7/2016;462.2
5/6/2016;462.87
5/5/2016;450.39
5/4/2016;449.06
5/3/2016;452.68
5/2/2016;445.61
5/1/2016;456.51
4/30/2016;453.48
4/29/2016;457.74
4/28/2016;451.3
4/27/2016;446.85
4/26/2016;470.37
4/25/2016;467.41
4/24/2016;463.85
4/23/2016;453.94
4/22/2016;448.29
4/21/2016;452.65
4/20/2016;442.85
4/19/2016;436.87
4/18/2016;429.57
4/17/2016;434.72
4/16/2016;434.72
4/15/2016;430.92
4/14/2016;426.1
4/13/2016;425.53
4/12/2016;428.27
4/11/2016;423.28
4/10/2016;423.48
4/9/2016;419.49
4/8/2016;418.97
4/7/2016;421.58
4/6/2016;421.57
4/5/2016;422.18
4/4/2016;419.31
4/3/2016;420.07
4/2/2016;419.9
4/1/2016;417.33
3/31/2016;416.44
3/30/2016;412.5
3/29/2016;416.5
3/28/2016;422.42
3/27/2016;425.03
3/26/2016;416.7
3/25/2016;416.57
3/24/2016;413.76
3/23/2016;417.3
3/22/2016;416.42
3/21/2016;411.38
3/20/2016;413.58
3/19/2016;410.55
3/18/2016;409.96
3/17/2016;418.5
3/16/2016;415.93
3/15/2016;414.65
3/14/2016;414.01
3/13/2016;413.15
3/12/2016;410.33
3/11/2016;418.81
3/10/2016;416.24
3/9/2016;412.83
3/8/2016;411.23
3/7/2016;415.43
3/6/2016;403.48
3/5/2016;396.79
3/4/2016;408.93
3/3/2016;418.82
3/2/2016;423.69
3/1/2016;432.4
2/29/2016;436.45
2/28/2016;433.69
2/27/2016;432.51
2/26/2016;427.5
2/25/2016;423.75
2/24/2016;422.79
2/23/2016;420.03
2/22/2016;436.9
2/21/2016;438.15
2/20/2016;441.89
2/19/2016;419.06
2/18/2016;421.32
2/17/2016;416.26
2/16/2016;406.89
2/15/2016;399.11
2/14/2016;404.53
2/13/2016;388.37
2/12/2016;381.97
2/11/2016;376.89
2/10/2016;378.56
2/9/2016;372.9
2/8/2016;370.68
2/7/2016;377.77
2/6/2016;374.92
2/5/2016;384.46
2/4/2016;390.08
2/3/2016;367
2/2/2016;372.85
2/1/2016;370.62
1/31/2016;369.82
1/30/2016;379.23
1/29/2016;379.39
1/28/2016;379.96
1/27/2016;394.93
1/26/2016;389.21
1/25/2016;392.91
1/24/2016;403.45
1/23/2016;389.52
1/22/2016;383.01
1/21/2016;408.97
1/20/2016;413.88
1/19/2016;375.96
1/18/2016;383.14
1/17/2016;381.01
1/16/2016;386.57
1/15/2016;373.43
1/14/2016;429.69
1/13/2016;432.68
1/12/2016;446.57
1/11/2016;449.33
1/10/2016;449.14
1/9/2016;451.07
1/8/2016;454.06
1/7/2016;458.49
1/6/2016;432.44
1/5/2016;432.67
1/4/2016;433.42
1/3/2016;432.51
1/2/2016;435.74
1/1/2016;435.43
12/31/2015;430.12
12/30/2015;428.2
12/29/2015;432.59
12/28/2015;421.28
12/27/2015;425.01
12/26/2015;419.76
12/25/2015;456.09
12/24/2015;456
12/23/2015;443.77
12/22/2015;434.88
12/21/2015;436.61
12/20/2015;442.26
12/19/2015;460.9
12/18/2015;462.5
12/17/2015;455.5
12/16/2015;453.63
12/15/2015;463.64
12/14/2015;441.98
12/13/2015;436.29
12/12/2015;436.01
12/11/2015;451.34
12/10/2015;416.18
12/9/2015;417.44
12/8/2015;409.2
12/7/2015;395.28
12/6/2015;393.26
12/5/2015;387
12/4/2015;363.25
12/3/2015;361.33
12/2/2015;360.23
12/1/2015;362.56
11/30/2015;378.23
11/29/2015;371.04
11/28/2015;355.94
11/27/2015;359.99
11/26/2015;356.88
11/25/2015;328.07
11/24/2015;319.49
11/23/2015;323.01
11/22/2015;323.59
11/21/2015;325.22
11/20/2015;321.85
11/19/2015;325.5
11/18/2015;336.59
11/17/2015;336
11/16/2015;332.1
11/15/2015;321.13
11/14/2015;333.49
11/13/2015;335
11/12/2015;336.19
11/11/2015;307.54
11/10/2015;338.46
11/9/2015;381
11/8/2015;373.91
11/7/2015;386.7
11/6/2015;371.37
11/5/2015;384.2
11/4/2015;398.09
11/3/2015;399.49
11/2/2015;363.97
11/1/2015;331.71
10/31/2015;314.6
10/30/2015;329.97
10/29/2015;315.68
10/28/2015;303.75
10/27/2015;295.88
10/26/2015;286.75
10/25/2015;288.97
10/24/2015;284
10/23/2015;278.07
10/22/2015;275.92
10/21/2015;269.16
10/20/2015;271.14
10/19/2015;264.81
10/18/2015;264.53
10/17/2015;271.35
10/16/2015;263
10/15/2015;254.64
10/14/2015;253.22
10/13/2015;250.37
10/12/2015;246.29
10/11/2015;248.9
10/10/2015;246.06
10/9/2015;244.46
10/8/2015;243.38
10/7/2015;243.64
10/6/2015;246.83
10/5/2015;240.7
10/4/2015;239.76
10/3/2015;239.93
10/2/2015;237.99
10/1/2015;238.54
9/30/2015;237.13
9/29/2015;237.78
9/28/2015;240.42
9/27/2015;233.54
9/26/2015;234.99
9/25/2015;235.76
9/24/2015;235.6
9/23/2015;230.1
9/22/2015;230.61
9/21/2015;227
9/20/2015;232.48
9/19/2015;232.26
9/18/2015;233.19
9/17/2015;233.17
9/16/2015;229.2
9/15/2015;230.36
9/14/2015;231.01
9/13/2015;230.61
9/12/2015;236.92
9/11/2015;241.04
9/10/2015;238.33
9/9/2015;238.72
9/8/2015;244.15
9/7/2015;240.31
9/6/2015;240.93
9/5/2015;230.92
9/4/2015;231.61
9/3/2015;226.83
9/2/2015;229.39
9/1/2015;227.6
8/31/2015;231.12
8/30/2015;229.24
8/29/2015;229.55
8/28/2015;233.4
8/27/2015;224.34
8/26/2015;226.35
8/25/2015;223.58
8/24/2015;213.38
8/23/2015;228.3
8/22/2015;230.62
8/21/2015;233.71
8/20/2015;235.49
8/19/2015;227.84
8/18/2015;247.43
8/17/2015;258.49
8/16/2015;259.19
8/15/2015;262.21
8/14/2015;266.52
8/13/2015;264.92
8/12/2015;269.43
8/11/2015;271.2
8/10/2015;265.18
8/9/2015;267.91
8/8/2015;261.08
8/7/2015;279.54
8/6/2015;279.91
8/5/2015;282.24
8/4/2015;285.31
8/3/2015;281.63
8/2/2015;282.55
8/1/2015;282.06
7/31/2015;284.68
7/30/2015;288.25
7/29/2015;289.53
7/28/2015;295.73
7/27/2015;294.44
7/26/2015;293.25
7/25/2015;289.64
7/24/2015;289.48
7/23/2015;276.91
7/22/2015;277.5
7/21/2015;277.13
7/20/2015;278.7
7/19/2015;275.59
7/18/2015;277.56
7/17/2015;279.95
7/16/2015;278.71
7/15/2015;285.22
7/14/2015;288.2
7/13/2015;292.35
7/12/2015;311.96
7/11/2015;294.77
7/10/2015;286.85
7/9/2015;270.21
7/8/2015;270.64
7/7/2015;267.19
7/6/2015;270.41
7/5/2015;271.15
7/4/2015;260.72
7/3/2015;256.36
7/2/2015;255.22
7/1/2015;257.97
6/30/2015;264.94
6/29/2015;257.57
6/28/2015;249.79
6/27/2015;251.67
6/26/2015;243
6/25/2015;242.14
6/24/2015;240.89
6/23/2015;244.07
6/22/2015;247.75
6/21/2015;244.64
6/20/2015;246.67
6/19/2015;245.56
6/18/2015;248.93
6/17/2015;248.37
6/16/2015;251.93
6/15/2015;237.47
6/14/2015;233.6
6/13/2015;233.18
6/12/2015;230.26
6/11/2015;229.62
6/10/2015;228.67
6/9/2015;229.74
6/8/2015;229.02
6/7/2015;223.96
6/6/2015;225.02
6/5/2015;225.33
6/4/2015;224.31
6/3/2015;225.57
6/2/2015;225.25
6/1/2015;223.6
5/31/2015;229.88
5/30/2015;232.93
5/29/2015;236.94
5/28/2015;236.8
5/27/2015;237.74
5/26/2015;237.61
5/25/2015;237.47
5/24/2015;240.91
5/23/2015;239.07
5/22/2015;240.34
5/21/2015;235.72
5/20/2015;234.25
5/19/2015;232.4
5/18/2015;233.28
5/17/2015;237.22
5/16/2015;236.73
5/15/2015;237.84
5/14/2015;237.19
5/13/2015;237.56
5/12/2015;242.81
5/11/2015;242.81
5/10/2015;241.25
5/9/2015;242.57
5/8/2015;244.65
5/7/2015;237.91
5/6/2015;230.89
5/5/2015;236.18
5/4/2015;239.8
5/3/2015;240.63
5/2/2015;236.26
5/1/2015;234.01
4/30/2015;236.59
4/29/2015;225.91
4/28/2015;225.48
4/27/2015;227.2
4/26/2015;220.5
4/25/2015;227.06
4/24/2015;232.38
4/23/2015;235.49
4/22/2015;234
4/21/2015;234.91
4/20/2015;225.04
4/19/2015;224.05
4/18/2015;223.99
4/17/2015;223.5
4/16/2015;229.09
4/15/2015;223.88
4/14/2015;220.53
4/13/2015;238.03
4/12/2015;238.03
4/11/2015;238.13
4/10/2015;235.86
4/9/2015;243.65
4/8/2015;246.65
4/7/2015;255.67
4/6/2015;257.57
4/5/2015;261.46
4/4/2015;254.87
4/3/2015;255.68
4/2/2015;254.48
4/1/2015;247.25
3/31/2015;245.26
3/30/2015;248.59
3/29/2015;243.58
3/28/2015;253.47
3/27/2015;248.68
3/26/2015;250.16
3/25/2015;247
3/24/2015;248.81
3/23/2015;265.61
3/22/2015;270
3/21/2015;261.83
3/20/2015;263.71
3/19/2015;263.28
3/18/2015;258.51
3/17/2015;286.87
3/16/2015;292.03
3/15/2015;287.46
3/14/2015;284.29
3/13/2015;287
3/12/2015;296.11
3/11/2015;296.63
3/10/2015;292.56
3/9/2015;290.23
3/8/2015;274.82
3/7/2015;276.33
3/6/2015;273.91
3/5/2015;277.12
3/4/2015;273.56
3/3/2015;282.42
3/2/2015;274.93
3/1/2015;258.78
2/28/2015;255.51
2/27/2015;255.96
2/26/2015;237.1
2/25/2015;238.45
2/24/2015;240.13
2/23/2015;239.69
2/22/2015;236.72
2/21/2015;245.86
2/20/2015;245.89
2/19/2015;242.42
2/18/2015;235.91
2/17/2015;244
2/16/2015;236.82
2/15/2015;234
2/14/2015;257.48
2/13/2015;236.65
2/12/2015;222.45
2/11/2015;220.02
2/10/2015;220.84
2/9/2015;222.19
2/8/2015;224.16
2/7/2015;228.7
2/6/2015;222.82
2/5/2015;216
2/4/2015;226.5
2/3/2015;228.31
2/2/2015;237.79
2/1/2015;227
1/31/2015;219
1/30/2015;232.55
1/29/2015;234.52
1/28/2015;236.14
1/27/2015;262.69
1/26/2015;270
1/25/2015;254.53
1/24/2015;240
1/23/2015;235
1/22/2015;226.32
1/21/2015;225.51
1/20/2015;208
1/19/2015;225.51
1/18/2015;184
1/17/2015;184
1/16/2015;199.46
1/15/2015;211.91
1/14/2015;120
1/13/2015;260
1/12/2015;288.99
1/11/2015;288.99
1/10/2015;288.99
1/9/2015;288.99
1/8/2015;288.99
1/7/2015;340
1/6/2015;340
1/5/2015;340
1/4/2015;340
1/3/2015;340
1/2/2015;340
1/1/2015;340
12/31/2014;340
12/30/2014;340
12/29/2014;340
12/28/2014;340
12/27/2014;340
12/26/2014;340
12/25/2014;340
12/24/2014;340
12/23/2014;340
12/22/2014;340
12/21/2014;340
12/20/2014;340
12/19/2014;340
12/18/2014;340
12/17/2014;350
12/16/2014;350
12/15/2014;350
12/14/2014;350
12/13/2014;350
12/12/2014;350
12/11/2014;360.5
12/10/2014;360.5
12/9/2014;375
12/8/2014;375
12/7/2014;378
12/6/2014;378
12/5/2014;377.1
12/4/2014;377.1
12/3/2014;378
12/2/2014;378
12/1/2014;370